"id","x","y","z"
BA000003B487F128,7,4,0.33
75000003B4C7ED28,7,4,3.33
5F000003B4A69F28,7,4,6.33
D2000003B49F8728,7,6,3.33
6C000003B48A1F28,7,6,6.33
E60000037BE33328,7,8,0.33
D400000354CACB28,7,8,3.33
97000003549FED28,7,8,6.33
77000003B4944A28,6,11,0.33
2400000354A9BA28,6,11,3.33
07000003B4A88728,6,11,6.33
C9000003B4953F28,6,13,0.33
88000003B4B6C828,6,13,3.33
45000003B4B84F28,6,13,6.33
F5000003B4ACB728,5,13,0.33
2C000003B4AD0928,5,13,3.33
02000003B4859A28,5,13,6.33
F3000003B4CFB428,5,11,0.33
5A000003B4C35C28,5,11,3.33
E3000003B4BD8A28,5,11,6.33
E900000354B83328,6,8,0.33
F10000037BEBD328,6,8,3.33
B90000037BC02528,6,8,6.33
EF000003B4A90D28,6,6,0.33
AF0000037BF23828,6,6,3.33
A9000003B4AC1728,6,6,6.33
04000003B4AC7528,6,4,0.33
E8000003B4840328,6,4,3.33
0D000003B4BB7A28,6,4,6.33
F6000003B4C2A228,10,4,0.33
69000003B4C14928,10,4,3.33
9C000003B4A38228,10,4,6.33
A50000037BE2EE28,10,6,0.33
A6000003B4C37128,10,6,3.33
A5000003B4937828,10,6,6.33
96000003B4A3DD28,10,8,0.33
9C000003B4A4CD28,10,8,3.33
DA000003B48A3F28,10,8,6.33
0F000003B489D928,10,10,0.33
10000003B49A1F28,10,10,3.33
2D000003B4987328,10,10,6.33
FB000003B4BA1128,10,12,0.33
AF000003B499DD28,10,12,3.33
01000003B489A028,10,12,6.33
EF000003B4A3F728,10,15,0.33
70000003B4A8D428,10,15,3.33
6800000354CBAD28,10,15,6.33
A9000003B4CA5C28,11,14,0.33
84000003B4A35628,11,14,3.33
9F000003B48D8128,11,14,6.33
17000003B4914C28,11,12,0.33
32000003B4889E28,11,12,3.33
58000003B4C25628,11,12,6.33
49000003B4BD5828,11,10,0.33
45000003B4D2A828,11,10,3.33
8F000003B4C4DE28,11,10,6.33
13000003B4950E28,11,8,0.33
70000003B4985628,11,8,3.33
5E000003B49A3428,11,8,6.33
B6000003B4943928,11,6,0.33
D2000003B4A6D428,11,6,3.33
EA000003B4D1F228,11,6,6.33
A8000003B4BD0228,11,4,0.33
3A000003B4BC3428,11,4,3.33
66000003B4C38728,11,4,6.33
67000003B4C30228,24,12,0.33
4D000003B4B3E028,24,12,3.33
C9000003B480CB28,24,12,6.33
38000003B48AF328,24,14,6.33
AB000003B480A328,24,14,3.33
E3000003B4CD1E28,24,14,0.33
0B000003B49D1228,24,16,0.33
62000003B4B75128,24,16,3.33
F9000003B4A07128,24,16,6.33
A3000003B4972928,24,18,6.33
51000003B481A228,24,18,3.33
78000003B4A52D28,24,18,0.33
30000003B494A828,25,18,0.33
56000003B4857628,25,18,3.33
F8000003B48E6128,25,18,6.33
A5000003B4CC6028,25,16,6.33
85000003B4A6AE28,25,16,0.33
21000003B4A89B28,25,14,3.33
CD000003B48B0E28,25,12,6.33
31000003B4942D28,25,12,3.33
83000003B4B53928,25,12,0.33
EC000003B4BB2028,28,10,0.33
F5000003B49C3528,28,10,3.33
B4000003B4C0D128,28,10,6.33
F9000003B4B1E128,28,12,6.33
B3000003B49C5228,28,12,3.33
73000003B4C7D828,28,12,0.33
C1000003B4A6DA28,28,16,0.33
93000003B49A2D28,28,16,3.33
CA000003B4BA2528,28,16,6.33
6F000003B4A9A928,28,18,6.33
74000003B49A4228,28,18,3.33
81000003B4A68828,28,18,0.33
17000003B48D6928,28,20,0.33
6A000003B48A2A28,28,20,3.33
77000003B4B8ED28,28,20,6.33
B7000003B4C99628,29,20,0.33
E3000003B4C7E428,29,20,3.33
CD000003B4D16B28,29,20,6.33
0A000003B4B55428,29,18,6.33
6A000003B4CD7328,29,18,0.33
9D000003B4CEAF28,29,16,0.33
DE000003B49FED28,29,16,3.33
C1000003B4A08C28,29,12,6.33
F3000003B4C12A28,29,12,3.33
2F000003B48BC228,29,12,0.33
4D000003B4C43B28,29,10,3.33
78000003B49E4C28,29,10,6.33
B7000003B4A37128,5,4,6.5
88000003548A7D28,5,5,7.83
AB0000037BE7EA28,5,6,6.5
4C000003B4A5BA28,5,8,6.5
5F000003B4D05D28,5,8,7.83
2E000003B4A38428,5,10,6.5
AF000003B4B65128,5,10,7.83
39000003B4AE1928,5,12,6.5
A2000003B4A9B028,5,12,7.83
4A000003B4AE6C28,5,16,7.83
35000003B4B8AC28,5,18,7.83
A6000003B4C14328,5,21,7.83
47000003B4ABFE28,11,4,6.5
46000003B4956728,11,4,7.83
4E000003B481C628,10,6,6.5
94000003B4CF7F28,10,6,7.83
26000003B4A48728,10,8,6.5
24000003B4950F28,10,8,7.83
CE000003B4ACDC28,10,10,6.5
6B000003B4A05E28,10,10,7.83
E7000003B49F9528,10,12,6.5
1D000003B4B11828,10,12,7.83
53000003B49EBF28,10,14,6.5
14000003B4A99028,10,14,7.83
7F000003B4BDDC28,10,16,7.83
1B000003B4C6F628,10,18,7.83
AE000003B488C828,10,20,7.83
85000003B4BB9228,10,22,7.83
EC000003B4AAB028,10,23,7.83
FB000003547ED428,15,4,7.83
91000003B4CBB828,15,6,7.83
43000003B4C02628,15,8,7.83
27000003B497AB28,15,10,7.83
86000003B4948828,15,12,7.83
8D000003B4B66B28,15,14,7.83
68000003B4927828,15,16,7.83
47000003B4A01D28,15,18,7.83
55000003B4A4F228,15,20,7.83
8D000003B4920428,15,22,7.83
7E000003B4C24A28,25,10,7.83
B1000003B4CA8828,25,12,6.5
DD0000037C105A28,25,12,7.83
9C00000354A12B28,25,14,7.83
FF000003B490C628,25,16,6.5
38000003B4CE8128,25,16,7.83
CF000003548DD028,25,18,7.83
CA000003B4898C28,25,20,7.83
AB000003B4955728,25,22,7.83
B100000354C3C228,25,23,7.83
E3000003B480BD28,29,10,6.5
7F000003B4AF6728,29,10,7.83
B9000003B48FAF28,29,12,6.5
D2000003B4946428,29,12,7.83
9B000003B49D2E28,29,14,7.83
81000003B4CD7628,29,16,6.5
0B000003B4A76A28,29,16,7.83
E6000003B4A10C28,29,18,6.5
67000003B4C21B28,29,18,7.83
89000003B4BAE128,29,20,7.83
77000003B49EB028,29,22,7.83
B4000003B483EC28,29,23,7.83
9E000003B4D30528,32,10,7.83
A7000003B4C0DF28,32,12,7.83
14000003B4D2E728,32,14,7.83
D800000354B5B228,32,16,7.83
BD000003B4857328,32,18,7.83
5C000003B49A2728,32,20,7.83
F1000003B4AEA328,32,22,7.83
03000003B4C07428,32,23,7.83
7A000003B4AFC428,29,10,-1.33
14000003B48BA928,29,16,-1.33
D9000003B4C61328,29,18,-1.33
43000003B4CBC528,29,20,-1.33
48000003B4D24728,28,20,-1.33
99000003B4D18728,28,18,-1.33
7D000003B48A0228,28,16,-1.33
06000003B49ED628,28,12,-1.33
12000003B4B6AB28,28,10,-1.33
8F000003B4CA4028,25,12,-1.33
2A000003B4B65628,25,14,-1.33
39000003B4932E28,25,16,-1.33
69000003B49B2C28,25,18,-1.33
ED000003B4936628,24,18,-1.33
FC000003B4952D28,24,16,-1.33
0E000003B49E9A28,24,14,-1.33
0D000003B48BF828,10,14,-1.33
74000003B4BB5028,10,12,-1.33
74000003B4AEA428,10,10,-1.33
05000003B4889F28,10,8,-1.33
A2000003B492D128,10,6,-1.33
45000003B4A23C28,10,4,-1.33
96000003B4BDCA28,9,6,-1.33
96000003B4C93A28,9,8,-1.33
D9000003B4C53828,9,10,-1.33
01000003B4B7BC28,9,12,-1.33
79000003B4926528,9,14,-1.33
EA00000354C49D28,5,13,-1.33
2F0000037BE13E28,6,11,-1.33
CB0000037BF98628,5,8,-1.33
2800000354C01C28,5,61,-1.33
0A00000354B1AB28,5,4,-1.33
2F0000037BF4CA28,6,4,-1.33
460000037BE4F128,6,6,-1.33
BF0000037BF09228,6,8,-1.33
890000037BFE8828,6,13,-1.33
530000037C000E28,5,9,-1.33
18000003B4AEB528,35.3,26.6,0
F2000003B4A6FD28,35.3,26.6,3
D6000003B4944228,35.3,26.6,6
F6000003B486D028,35.3,25.5,0
BE000003B4A09328,35.3,25.5,3
2B000003B49B6D28,35.3,25.5,6
19000003B4B9F628,34.3,25.5,8.75
08000003B499E028,34.3,26.6,8.75
3F000003B4C29D28,35.3,24,0
60000003B499D728,35.3,24,3
F20000037BE86E28,35.3,24,6
C1000003B4AD3928,34.3,24,8.75
65000003B4CEA428,34.3,22.5,6
98000003B4C4F628,35.3,22.5,6
C2000003B48BF228,35.3,22.5,3
D9000003B4D0CC28,35.3,22.5,0
22000003B4CD6D28,35.3,21,0
7A0000037BFC6B28,35.3,21,3
A50000037C041828,35.3,21,6
B4000003B4A91D28,34,21,7.25
7A000003B490C128,34.3,19.5,8.75
C7000003B4B54D28,35.3,19.5,6
1B000003B4AE2328,35.3,19.5,3
F8000003B48C5328,35.3,19.5,0
B8000003B4D03228,35.3,18,0
4D000003B49F4728,35.3,18,3
59000003B49EE028,35.3,18,6
1C000003B4984728,34.3,18,8.75
FF000003B4A42028,34.3,16.5,8.75
46000003B4B33A28,35.3,16.5,6
140000037C00EC28,35.3,16.5,3
19000003B4CE2D28,35.3,16.5,0
16000003B4BB3828,34.7,15,0
D9000003B4B0D128,34.7,15,3
A20000037BEFEB28,34.7,15,6
6E0000037C060628,33.6,15,7.59
45000003B4A74128,34.3,13.5,8.75
D00000037C0C9028,35.3,13.5,6
B10000037BE8AA28,35.3,13.5,3
19000003B4AE3028,35.3,13.5,0
41000003B4D28E28,35.3,12,0
95000003B49D5728,35.3,12,3
F9000003B4AFF628,35.3,12,6
CF000003B4AC5928,34.3,12,8.75
05000003B4A14528,34.3,10.5,8.75
FE000003B4C2EE28,35.3,10.5,6
93000003B48BBD28,35.3,10.5,3
50000003B4BB5F28,35.3,10.5,0
AC000003B4BB7228,35.3,9,0
7A000003B4815128,35.3,9,3
D5000003B4C9FE28,35.3,9,6
8E000003B4B0AB28,34.3,9,8.75
EF00000354A36C28,35.3,7.5,0
12000003B4CCC528,35.3,7.5,3
7B000003B480CD28,35.3,7.5,6
21000003B4990028,35.3,6,6
25000003B48B9D28,35.3,6,3
5C000003B4B1CF28,35.3,6,0
D40000037BFFB428,31,6,0
18000003B4BD1728,31,6,3
B0000003B48F6628,31,6,6
63000003B489C828,31,6,8.75
A9000003B486E628,28.5,6,8.75
34000003B4ADDD28,28.5,6,6
05000003B49C7228,28.5,6,3
75000003B4D30028,28.5,6,0
FD000003B4A71828,27,6,8.75
8B000003B49E9D28,27,6,6
3F000003B4B31028,27,6,3
AD000003B4B56928,27,6,0
0C000003B4818728,24.5,6,0
AC0000037BFE0228,24.5,6,3
160000037BDD6828,24.5,6,6
01000003B4862728,24.5,6,8.75
39000003B4BDBB28,23,6,8.75
8B000003B48F0D28,23,6,6
24000003B4AC5C28,23,6,3
9A000003549F0228,23,6,0
4C0000037BFFC428,23,10,0
BA000003B48D0B28,23,10,3
2D000003B4CADE28,23,10,6
14000003B4C26E28,23,10,8.75
D6000003B4A38F28,22.5,11.5,8.75
44000003547C0F28,22.5,11.5,6
340000037C0D7028,22.5,11.5,3
760000037BCD9A28,22.5,11.5,0
69000003B4CFD728,22.5,13,0
8A000003B4846B28,22.5,13,3
D5000003B4ABD128,22.5,13,6
C600000354C4DE28,22.5,13,8.75
68000003B4BEDF28,22.5,14.5,8.75
650000037BDD1D28,22.5,14.5,6
A6000003B4CAA028,22.5,14.5,3
3F00000354B1B928,22.5,14.5,0
F70000037BC9DF28,22.5,21,0
450000037BD6D728,22.5,21,3
650000037BCD9428,22.5,21,6
E70000037BF9C528,22.5,21,8.75
1D0000037C021728,22.5,22.5,8.75
600000037BD65D28,22.5,22.5,6
B40000037C006128,22.5,22.5,3
E20000037BE54328,22.5,22.5,0
960000037BD8B128,22.5,24,0
340000037BC17728,22.5,24,3
330000037BBFCD28,22.5,24,6
B30000037C090028,22.5,24,8.75
05000003B49B3D28,22.5,25.5,8.75
AB000003B4A86028,22.5,25.5,6
43000003B48ACA28,22.5,25.5,3
23000003B4BD7C28,22.5,25.5,0
E50000037BF32C28,22.5,27,0
EC000003B4853C28,22.5,27,3
160000037C107628,22.5,27,6
F80000035450D728,22.5,27,8.75
CA000003B4BE4128,23,27,8.75
DC000003B4A1E228,23,27,6
24000003B4B62F28,23,27,3
7F0000037BCF6128,23,27,0
3700000354A9B428,24.5,27,0
32000003B49A2528,24.5,27,3
3F0000037C0BFC28,24.5,27,6
91000003B494A028,24.5,27,8.75
B6000003B4A79028,26,27,8.75
5F000003B4BEDE28,26,27,6
E20000037BD0BC28,26,27,3
3B000003B48B7C28,26,27,0
44000003B4C7D928,27.5,27,0
A30000037BEB0A28,27.5,27,3
01000003B4B2C128,27.5,27,6
EF000003547D4128,27.5,27,8.75
7C000003B488B528,32,26.6,8.75
84000003B4CB8328,32,27,6
8A000003B4BC2128,32,27,3
BC000003B4D01428,32,27,0
A5000003B481C328,26.25,15,0
69000003B4C71F28,26.25,15,3
100000037BCDD428,26.25,15,6
DF000003B4BA1E28,26.25,15,8.75
B300000354859128,27.17,15,8.75
1C000003B4B84C28,27.17,15,6
780000037C0C5128,27.17,15,3
670000037C0B7A28,27.17,15,0
A1000003B48C5028,21,24.5,0
26000003B4A7AC28,21,24.5,3
29000003B48BF728,21,24.5,6
9E000003547F1528,21,24.5,8.75
2C000003B4B12C28,21,26,8.75
5F00000354BB3828,21,26,6
33000003B485AE28,21,26,3
F90000037BC9A628,21,26,0
9D000003B4986628,21,27.5,0
9F0000037BF96A28,21,27.5,3
A4000003B4BA2728,21,27.5,6
8A000003B4857228,21,27.5,8.75
33000003B4B52C28,19.5,27.5,8.75
76000003B4929928,19.5,27.5,6
07000003B4C89A28,19.5,27.5,3
B3000003B4B83D28,19.5,27.5,0
4D000003B494A428,18,27.5,0
45000003B4B4E328,18,27.5,3
93000003B4C61E28,18,27.5,6
C9000003B4AC6C28,18,27.5,8.75
2E000003B4A1B628,15,27.5,8.75
EC000003B49E5628,15,27.5,6
EB000003B4A83228,15,27.5,3
20000003B4BBBC28,15,27.5,0
8A000003B4A46028,13.5,27.5,0
72000003B4A32428,13.5,27.5,3
77000003B4C4D528,13.5,27.5,6
A40000037C03D228,13.5,27.5,8.75
E3000003B4AC1A28,11,27.5,8.75
D70000037BEBCF28,11,27.5,6
D4000003B48F3B28,11,27.5,3
1A0000037BE54828,11,27.5,0
18000003B4AD9E28,9.5,27.5,0
29000003B4C9D328,9.5,27.5,3
86000003B4A06E28,9.5,27.5,6
A6000003B4827E28,9.5,27.5,8.75
53000003B48E3628,6,27.5,8.75
99000003B4832A28,6,27.5,6
6D000003B4BA1828,6,27.5,3
71000003B48D2728,6,27.5,0
B4000003B4C2E328,4.5,27.5,0
0D000003B49F1528,4.5,27.5,3
16000003B4D2F428,4.5,27.5,6
5A000003B493C328,4.5,27.5,8.75
EA000003B493D628,3,27.5,8.75
BA000003B4C1B128,3,27.5,6
8B000003B4965528,3,27.5,3
3F0000037BDFBA28,3,27.5,0
1C000003B4CBF328,1.5,27.5,0
0A000003B48B4828,1.5,27.5,3
3B0000037BCB7128,1.5,27.5,6
AC0000037C06E328,1.5,27.5,8.75
BF000003B4B5E228,0,27.5,8.75
58000003B4B3DB28,0,27.5,6
49000003B4A8AC28,0,27.5,3
C0000003B4919228,0,27.5,0
12000003B4A07428,0,26,0
7A000003B48CE428,0,26,3
3A000003B4C74328,0,26,8.75
32000003B492ED28,0,26,6
4B0000037BFC5F28,0,21.5,0
F2000003B4967F28,0,21.5,3
78000003B491CB28,0,21.5,6
670000037BDF3C28,0,21.5,8.75
F8000003B48F7828,0,17,8.75
5B0000037BFCC728,0,17,6
D10000037BEDAC28,0,17,3
1E0000037BEDA628,0,17,0
51000003B4920028,0,15.5,0
D6000003B4BD9828,0,15.5,3
4B000003B4BA0428,0,15.5,6
41000003B48D9628,0,15.5,8.75
1B000003B4B77B28,0,14,8.75
CC000003B4B3C128,0,14,6
5D000003B4A3F128,0,14,3
31000003B4C1CF28,0,14,0
AD000003B4A5E028,0,12.5,0
2C000003B4A6EA28,0,12.5,3
F60000037BFF8E28,0,12.5,6
65000003B4D0B328,0,12.5,8.75
95000003B4B6BF28,0,18.5,0
9B000003549F8728,0,18.5,3
03000003B4840628,0,18.5,6
510000037BD12628,0,18.5,8.75
A7000003B4D37D28,3,14,0
A3000003B4A93528,3,14,3
D4000003B4896D28,3,14,6
3C000003B4D28228,3,14,8.75
59000003B48F7028,4,14,8.75
95000003B4A06028,4,14,6
3B000003B4B01D28,4,14,3
08000003B4BFBD28,4,14,0
A3000003B4934D28,0,11,0
AE000003B4B84A28,0,11,3
A8000003B4854828,0,11,6
6C0000037C0AB928,0,11,8.75
EB0000037BF24C28,0,9.5,8.75
E9000003B4A6BF28,0,9.5,6
BC00000354B94328,0,9.5,3
19000003B4B67128,0,9.5,0
56000003B4A00028,3,10,0
C2000003B48DA428,3,10,3
B4000003B4878828,3,10,6
0C000003B4809E28,3,10,8.75
1C000003B4857B28,4,10,8.75
B2000003B4A83128,4,10,6
D3000003B4A74828,4,10,3
95000003B49F6528,4,10,0
0A0000037C011428,3,5.5,0
D100000354923F28,3,5.5,3
B8000003B4A38D28,3,5.5,6
27000003B4C24928,3,5.5,8.75
E2000003B4ABD028,4,5.5,8.75
A9000003B4B66428,4,5.5,6
E0000003B4CEA328,4,5.5,3
BA0000037BF31A28,4,5.5,0
9E000003B4BFB428,0,5,0
E2000003B490B128,0,5,3
7A000003B4ACEF28,0,5,6
72000003B4A8C728,0,5,8.75
24000003B4BB9A28,0,3.5,8.75
A1000003B4C6BC28,0,3.5,6
29000003B4BD2328,0,3.5,3
7D0000037C043A28,0,3.5,0
16000003B493FB28,0,2,0
86000003B4817C28,0,2,3
13000003B48E6428,0,2,6
66000003B4B66E28,0,2,8.75
72000003B49F0A28,3,2,0
EB000003B48F7628,3,2,3
FF000003B4D0D028,3,2,6
CE000003B4C72228,3,2,8.75
27000003B49D5128,4,0,8.75
F3000003B4A76128,4,0,6
07000003B48BA728,4,0,3
2E000003B4B55B28,4,0,0
28000003B4BDA628,7,0,0
18000003B4C03628,7,0,3
28000003B4CF0028,7,0,6
C3000003B48C3828,7,0,8.75
780000037BE26F28,17,0,8.75
280000037BD64328,17,0,6
5B0000037BDA9A28,17,0,3
2B0000037BDA7928,17,0,0
3F000003B4AE2C28,17,5.5,0
8B0000037BEA7628,17,5.5,3
DE000003B49EF428,17,5.5,6
20000003B4AE4828,17,5.5,8.75
050000037C01E828,17,10,8.75
8B0000037BF74A28,17,10,6
8C0000037BD1A728,17,10,3
BA000003B48E2028,17,10,0
A3000003B4B63B28,17,14,0
AD000003B485EB28,17,14,3
E6000003B49D2228,17,14,6
5A000003B4A06A28,17,14,8.75
5A000003B4834A28,18,14,8.75
B5000003B495B628,18,14,6
77000003B4A86428,18,14,3
F0000003B4B03128,18,14,0
41000003B49D1F28,18,10,0
20000003B4B52228,18,10,3
8B000003B4B32328,18,10,6
6E000003B4C2D228,18,10,8.75
6900000354AE4828,18,5.5,8.75
1A000003B4AFBF28,18,5.5,6
2C0000037BFAC228,18,5.5,3
D100000354CA6828,18,5.5,0
96000003549B0C28,18,0,0
00000003B4D34028,18,0,3
C9000003B49FC528,18,0,6
E40000037BD4ED28,18,0,8.75
4B000003B4ADC228,21,14.5,8.75
D5000003B4D0A628,21,14.5,6
3E000003B4A45328,21,14.5,3
B4000003B4C68728,21,14.5,0
50000003B489EF28,21,13,0
B3000003B492CC28,21,13,3
2C000003B49D8B28,21,13,6
19000003B4B02728,21,13,8.75
67000003B4831428,21,11.5,8.75
61000003B4A32A28,21,11.5,6
720000037BBF1A28,21,11.5,3
100000037C0D7F28,21,11.5,0
8F000003B4A6F128,21,10,0
49000003B4C24B28,21,10,3
7A000003B4CFD928,21,10,6
BF00000354884E28,21,10,8.75
3B0000037BE4FD28,21,6,8.75
310000037BE3ED28,21,6,6
FB0000037BF3CD28,21,6,3
4A0000037C0DEA28,21,6,0
49000003B4A06428,21,4.5,0
55000003B4B75028,21,4.5,3
78000003B4A43428,21,4.5,6
6E0000037BC3D028,21,4.5,8.75
E2000003B49E2F28,21,3,8.75
54000003B4AF9428,21,3,6
92000003B4914B28,21,3,3
77000003B4921C28,21,3,0
360000037BD6A228,21,1.5,0
EE0000037BC71028,21,1.5,3
8D000003B49EA828,21,1.5,6
BF000003B48DA828,21,1.5,8.75
A5000003B4943728,21,0,8.75
0B0000037BE21A28,21,0,6
670000037BFE2E28,21,0,3
2C0000037C010828,21,0,0
82000003B48CEF28,34.3,8,8.75
D6000003B4B67B28,29,20,6.5
7F00000354A24928,7,6,0.33
76000003B4C45028,25,16,3.33
6A000003B4B52F28,25,14,6.33
46000003B4A94928,25,14,6.5
AF000003B498C428,29,18,3.33
ED0000037BC80128,29,16,6.33
50000003B497F828,29,10,0.33
2D0000037BD4D228,25,18,6.5
A8000003B4987428,29,12,-1.33
3C000003B4AD9128,24,12,-1.33
6D000003548D4E28,9,4,-1.33
20000003B4B37428,25,14,0.33
